<?xml version="1.0" encoding="utf-8"?>
<COLLADA xmlns="http://www.collada.org/2005/11/COLLADASchema" version="1.4.1">
  <asset>
    <contributor>
      <author>Blender User</author>
      <authoring_tool>Blender 2.74.0 commit date:2015-03-31, commit time:13:39, hash:000dfc0</authoring_tool>
    </contributor>
    <created>2015-06-29T21:52:09</created>
    <modified>2015-06-29T21:52:09</modified>
    <unit name="meter" meter="1"/>
    <up_axis>Z_UP</up_axis>
  </asset>
  <library_cameras>
    <camera id="Camera-camera" name="Camera">
      <optics>
        <technique_common>
          <perspective>
            <xfov sid="xfov">49.13434</xfov>
            <aspect_ratio>1.777778</aspect_ratio>
            <znear sid="znear">0.1</znear>
            <zfar sid="zfar">100</zfar>
          </perspective>
        </technique_common>
      </optics>
      <extra>
        <technique profile="blender">
          <YF_dofdist>0</YF_dofdist>
          <shiftx>0</shiftx>
          <shifty>0</shifty>
        </technique>
      </extra>
    </camera>
    <camera id="Camera_001-camera" name="Camera.001">
      <optics>
        <technique_common>
          <perspective>
            <xfov sid="xfov">49.13434</xfov>
            <aspect_ratio>1.777778</aspect_ratio>
            <znear sid="znear">0.1</znear>
            <zfar sid="zfar">100</zfar>
          </perspective>
        </technique_common>
      </optics>
      <extra>
        <technique profile="blender">
          <YF_dofdist>0</YF_dofdist>
          <shiftx>0</shiftx>
          <shifty>0</shifty>
        </technique>
      </extra>
    </camera>
  </library_cameras>
  <library_lights>
    <light id="Lamp-light" name="Lamp">
      <technique_common>
        <point>
          <color sid="color">1 1 1</color>
          <constant_attenuation>1</constant_attenuation>
          <linear_attenuation>0</linear_attenuation>
          <quadratic_attenuation>0.00111109</quadratic_attenuation>
        </point>
      </technique_common>
      <extra>
        <technique profile="blender">
          <adapt_thresh>0.000999987</adapt_thresh>
          <area_shape>1</area_shape>
          <area_size>0.1</area_size>
          <area_sizey>0.1</area_sizey>
          <area_sizez>1</area_sizez>
          <atm_distance_factor>1</atm_distance_factor>
          <atm_extinction_factor>1</atm_extinction_factor>
          <atm_turbidity>2</atm_turbidity>
          <att1>0</att1>
          <att2>1</att2>
          <backscattered_light>1</backscattered_light>
          <bias>1</bias>
          <blue>1</blue>
          <buffers>1</buffers>
          <bufflag>0</bufflag>
          <bufsize>2880</bufsize>
          <buftype>2</buftype>
          <clipend>30.002</clipend>
          <clipsta>1.000799</clipsta>
          <compressthresh>0.04999995</compressthresh>
          <dist sid="blender_dist">29.99998</dist>
          <energy sid="blender_energy">1</energy>
          <falloff_type>2</falloff_type>
          <filtertype>0</filtertype>
          <flag>0</flag>
          <gamma sid="blender_gamma">1</gamma>
          <green>1</green>
          <halo_intensity sid="blnder_halo_intensity">1</halo_intensity>
          <horizon_brightness>1</horizon_brightness>
          <mode>8192</mode>
          <ray_samp>1</ray_samp>
          <ray_samp_method>1</ray_samp_method>
          <ray_samp_type>0</ray_samp_type>
          <ray_sampy>1</ray_sampy>
          <ray_sampz>1</ray_sampz>
          <red>1</red>
          <samp>3</samp>
          <shadhalostep>0</shadhalostep>
          <shadow_b sid="blender_shadow_b">0</shadow_b>
          <shadow_g sid="blender_shadow_g">0</shadow_g>
          <shadow_r sid="blender_shadow_r">0</shadow_r>
          <sky_colorspace>0</sky_colorspace>
          <sky_exposure>1</sky_exposure>
          <skyblendfac>1</skyblendfac>
          <skyblendtype>1</skyblendtype>
          <soft>3</soft>
          <spotblend>0.15</spotblend>
          <spotsize>75</spotsize>
          <spread>1</spread>
          <sun_brightness>1</sun_brightness>
          <sun_effect_type>0</sun_effect_type>
          <sun_intensity>1</sun_intensity>
          <sun_size>1</sun_size>
          <type>0</type>
        </technique>
      </extra>
    </light>
    <light id="Lamp_001-light" name="Lamp.001">
      <technique_common>
        <point>
          <color sid="color">1 1 1</color>
          <constant_attenuation>1</constant_attenuation>
          <linear_attenuation>0</linear_attenuation>
          <quadratic_attenuation>0.00111109</quadratic_attenuation>
        </point>
      </technique_common>
      <extra>
        <technique profile="blender">
          <adapt_thresh>9.99987e-4</adapt_thresh>
          <area_shape>1</area_shape>
          <area_size>0.1</area_size>
          <area_sizey>0.1</area_sizey>
          <area_sizez>1</area_sizez>
          <atm_distance_factor>1</atm_distance_factor>
          <atm_extinction_factor>1</atm_extinction_factor>
          <atm_turbidity>2</atm_turbidity>
          <att1>0</att1>
          <att2>1</att2>
          <backscattered_light>1</backscattered_light>
          <bias>1</bias>
          <blue>1</blue>
          <buffers>1</buffers>
          <bufflag>0</bufflag>
          <bufsize>2880</bufsize>
          <buftype>2</buftype>
          <clipend>30.002</clipend>
          <clipsta>1.000799</clipsta>
          <compressthresh>0.04999995</compressthresh>
          <dist sid="blender_dist">29.99998</dist>
          <energy sid="blender_energy">1</energy>
          <falloff_type>2</falloff_type>
          <filtertype>0</filtertype>
          <flag>0</flag>
          <gamma sid="blender_gamma">1</gamma>
          <green>1</green>
          <halo_intensity sid="blnder_halo_intensity">1</halo_intensity>
          <horizon_brightness>1</horizon_brightness>
          <mode>8192</mode>
          <ray_samp>1</ray_samp>
          <ray_samp_method>1</ray_samp_method>
          <ray_samp_type>0</ray_samp_type>
          <ray_sampy>1</ray_sampy>
          <ray_sampz>1</ray_sampz>
          <red>1</red>
          <samp>3</samp>
          <shadhalostep>0</shadhalostep>
          <shadow_b sid="blender_shadow_b">0</shadow_b>
          <shadow_g sid="blender_shadow_g">0</shadow_g>
          <shadow_r sid="blender_shadow_r">0</shadow_r>
          <sky_colorspace>0</sky_colorspace>
          <sky_exposure>1</sky_exposure>
          <skyblendfac>1</skyblendfac>
          <skyblendtype>1</skyblendtype>
          <soft>3</soft>
          <spotblend>0.15</spotblend>
          <spotsize>75</spotsize>
          <spread>1</spread>
          <sun_brightness>1</sun_brightness>
          <sun_effect_type>0</sun_effect_type>
          <sun_intensity>1</sun_intensity>
          <sun_size>1</sun_size>
          <type>0</type>
        </technique>
      </extra>
    </light>
  </library_lights>
  <library_images/>
  <library_effects>
    <effect id="Material_001-effect">
      <profile_COMMON>
        <technique sid="common">
          <phong>
            <emission>
              <color sid="emission">0 0 0 1</color>
            </emission>
            <ambient>
              <color sid="ambient">0 0 0 1</color>
            </ambient>
            <diffuse>
              <color sid="diffuse">0.64 0.64 0.64 1</color>
            </diffuse>
            <specular>
              <color sid="specular">0.25 0.25 0.25 1</color>
            </specular>
            <shininess>
              <float sid="shininess">50</float>
            </shininess>
            <index_of_refraction>
              <float sid="index_of_refraction">1</float>
            </index_of_refraction>
          </phong>
        </technique>
      </profile_COMMON>
    </effect>
  </library_effects>
  <library_materials>
    <material id="Material_001-material" name="Material_001">
      <instance_effect url="#Material_001-effect"/>
    </material>
  </library_materials>
  <library_geometries>
    <geometry id="Cylinder-mesh" name="Cylinder">
      <mesh>
        <source id="Cylinder-mesh-positions">
          <float_array id="Cylinder-mesh-positions-array" count="480">0 0.6 -0.02499997 0 0.6 0.02499997 0.1170542 0.5884711 -0.02499997 0.1170542 0.5884711 0.02499997 0.22961 0.5543277 -0.02499997 0.22961 0.5543277 0.02499997 0.3333421 0.4988817 -0.02499997 0.3333421 0.4988817 0.02499997 0.424264 0.424264 -0.02499997 0.424264 0.424264 0.02499997 0.4988818 0.3333421 -0.02499997 0.4988818 0.3333421 0.02499997 0.5543277 0.22961 -0.02499997 0.5543277 0.22961 0.02499997 0.5884711 0.1170542 -0.02499997 0.5884711 0.1170542 0.02499997 0.6 0 -0.02499997 0.6 0 0.02499997 0.5884712 -0.1170541 -0.02499997 0.5884712 -0.1170541 0.02499997 0.5543277 -0.2296099 -0.02499997 0.5543277 -0.2296099 0.02499997 0.4988818 -0.3333421 -0.02499997 0.4988818 -0.3333421 0.02499997 0.424264 -0.424264 -0.02499997 0.424264 -0.424264 0.02499997 0.3333421 -0.4988818 -0.02499997 0.3333421 -0.4988818 0.02499997 0.2296099 -0.5543277 -0.02499997 0.2296099 -0.5543277 0.02499997 0.117054 -0.5884712 -0.02499997 0.117054 -0.5884712 0.02499997 -1.95505e-7 -0.6 -0.02499997 -1.95505e-7 -0.6 0.02499997 -0.1170544 -0.5884711 -0.02499997 -0.1170544 -0.5884711 0.02499997 -0.2296103 -0.5543276 -0.02499997 -0.2296103 -0.5543276 0.02499997 -0.3333424 -0.4988815 -0.02499997 -0.3333424 -0.4988815 0.02499997 -0.4242643 -0.4242638 -0.02499997 -0.4242643 -0.4242638 0.02499997 -0.4988819 -0.3333418 -0.02499997 -0.4988819 -0.3333418 0.02499997 -0.5543279 -0.2296096 -0.02499997 -0.5543279 -0.2296096 0.02499997 -0.5884712 -0.1170536 -0.02499997 -0.5884712 -0.1170536 0.02499997 -0.6 5.79359e-7 -0.02499997 -0.6 5.79359e-7 0.02499997 -0.588471 0.1170548 -0.02499997 -0.588471 0.1170548 0.02499997 -0.5543274 0.2296106 -0.02499997 -0.5543274 0.2296106 0.02499997 -0.4988813 0.3333427 -0.02499997 -0.4988813 0.3333427 0.02499997 -0.4242635 0.4242646 -0.02499997 -0.4242635 0.4242646 0.02499997 -0.3333414 0.4988822 -0.02499997 -0.3333414 0.4988822 0.02499997 -0.2296092 0.554328 -0.02499997 -0.2296092 0.554328 0.02499997 -0.1170533 0.5884713 -0.02499997 -0.1170533 0.5884713 0.02499997 0.05852705 0.5942355 0.02499997 0.173332 0.5713994 0.02499997 0.2814761 0.5266047 0.02499997 0.3788031 0.4615729 0.02499997 0.4615729 0.3788031 0.02499997 0.5266047 0.2814761 0.02499997 0.5713994 0.173332 0.02499997 0.5942355 0.05852711 0.02499997 0.5942355 -0.05852699 0.02499997 0.5713995 -0.173332 0.02499997 0.5266048 -0.281476 0.02499997 0.4615729 -0.3788031 0.02499997 0.3788031 -0.4615729 0.02499997 0.281476 -0.5266048 0.02499997 0.173332 -0.5713995 0.02499997 0.05852687 -0.5942355 0.02499997 -0.05852729 -0.5942355 0.02499997 -0.1733323 -0.5713993 0.02499997 -0.2814763 -0.5266045 0.02499997 -0.3788034 -0.4615727 0.02499997 -0.4615731 -0.3788028 0.02499997 -0.526605 -0.2814757 0.02499997 -0.5713996 -0.1733316 0.02499997 -0.5942356 -0.05852645 0.02499997 -0.5942355 0.05852758 0.02499997 -0.5713992 0.1733327 0.02499997 -0.5266044 0.2814767 0.02499997 -0.4615724 0.3788037 0.02499997 -0.3788025 0.4615734 0.02499997 -0.2814753 0.5266051 0.02499997 -0.1733312 0.5713997 0.02499997 -0.05852663 0.5942357 0.02499997 0.05214846 0.5294722 0.02499997 0 0.5346084 0.02499997 0.1544412 0.5091248 0.02499997 0.1042969 0.524336 0.02499997 0.2507991 0.4692121 0.02499997 0.2045857 0.4939137 0.02499997 0.3375188 0.4112679 0.02499997 0.2970125 0.4445106 0.02499997 0.4112679 0.3375188 0.02499997 0.3780252 0.3780252 0.02499997 0.4692121 0.2507991 0.02499997 0.4445106 0.2970125 0.02499997 0.5091248 0.1544412 0.02499997 0.4939137 0.2045857 0.02499997 0.5294722 0.05214846 0.02499997 0.524336 0.1042969 0.02499997 0.5294722 -0.05214834 0.02499997 0.5346083 0 0.02499997 0.5091249 -0.1544412 0.02499997 0.524336 -0.1042968 0.02499997 0.4692122 -0.250799 0.02499997 0.4939137 -0.2045856 0.02499997 0.4112679 -0.3375188 0.02499997 0.4445106 -0.2970125 0.02499997 0.3375188 -0.4112678 0.02499997 0.3780252 -0.3780251 0.02499997 0.2507991 -0.4692122 0.02499997 0.2970125 -0.4445106 0.02499997 0.1544412 -0.5091248 0.02499997 0.2045856 -0.4939137 0.02499997 0.05214828 -0.5294721 0.02499997 0.1042968 -0.524336 0.02499997 -0.05214864 -0.5294721 0.02499997 -1.67714e-7 -0.5346083 0.02499997 -0.1544415 -0.5091248 0.02499997 -0.1042971 -0.5243359 0.02499997 -0.2507993 -0.4692119 0.02499997 -0.2045859 -0.4939135 0.02499997 -0.3375191 -0.4112676 0.02499997 -0.2970127 -0.4445104 0.02499997 -0.4112681 -0.3375185 0.02499997 -0.3780254 -0.3780249 0.02499997 -0.4692123 -0.2507987 0.02499997 -0.4445108 -0.2970122 0.02499997 -0.5091249 -0.1544408 0.02499997 -0.4939138 -0.2045853 0.02499997 -0.5294722 -0.05214792 0.02499997 -0.524336 -0.1042964 0.02499997 -0.5294721 0.05214893 0.02499997 -0.5346083 5.35097e-7 0.02499997 -0.5091246 0.1544418 0.02499997 -0.5243359 0.1042975 0.02499997 -0.4692118 0.2507997 0.02499997 -0.4939134 0.2045863 0.02499997 -0.4112674 0.3375194 0.02499997 -0.4445102 0.2970131 0.02499997 -0.3375183 0.4112683 0.02499997 -0.3780247 0.3780257 0.02499997 -0.2507984 0.4692125 0.02499997 -0.2970119 0.444511 0.02499997 -0.1544405 0.5091251 0.02499997 -0.204585 0.493914 0.02499997 -0.05214804 0.5294723 0.02499997 -0.1042961 0.5243362 0.02499997</float_array>
          <technique_common>
            <accessor source="#Cylinder-mesh-positions-array" count="160" stride="3">
              <param name="X" type="float"/>
              <param name="Y" type="float"/>
              <param name="Z" type="float"/>
            </accessor>
          </technique_common>
        </source>
        <source id="Cylinder-mesh-normals">
          <float_array id="Cylinder-mesh-normals-array" count="672">0.09801936 0.9951845 0 0.2902849 0.9569403 0 0.4713968 0.8819213 0 0.6343926 0.773011 0 0.77301 0.634394 0 0.8819214 0.4713964 0 0.9569407 0.2902839 0 0.9951848 0.09801626 0 0.9951844 -0.09801948 0 0.9569406 -0.2902839 0 0.8819216 -0.4713962 0 0.7730102 -0.6343935 0 0.634394 -0.77301 0 0.4713963 -0.8819215 0 0.2902857 -0.95694 0 0.09801518 -0.9951848 0 -0.0980193 -0.9951845 0 -0.2902867 -0.9569398 0 -0.4713991 -0.88192 0 -0.6343923 -0.7730113 0 -0.7730113 -0.6343923 0 -0.8819207 -0.4713979 0 -0.9569404 -0.2902844 0 -0.9951848 -0.09801727 0 -0.9951845 0.09801936 0 -0.9569401 0.2902857 0 -0.8819212 0.4713968 0 -0.7730102 0.6343935 0 -0.6343923 0.7730113 0 -0.4713957 0.8819218 0 0 0 1 -0.09801799 0.9951847 0 -0.2902834 0.9569407 0 0 0 1 0 0 1 0 0 1 0 0 1 0 0 1 0 0 1 0 0 1 0 0 1 0 0 1 0 0 1 0 0 1 0 0 1 0 0 1 0 0 1 0 0 1 0 0 1 0 0 1 0 0 1 0 0 1 0 0 1 0 0 1 0 0 1 0 0 1 0 0 1 0 0 1 0 0 1 0 0 1 0 0 1 0 0 1 0 0 1 0 0 1 0 0 1 0 0 1 0 0 1 0 0 1 0 0 1 0 0 1 0 0 1 0 0 1 0 0 1 0 0 1 0 0 1 0 0 1 0 0 1 0 0 1 0 0 1 0 0 1 0 0 1 0 0 1 0 0 1 0 0 1 0 0 1 0 0 1 0 0 1 0 0 1 0 0 1 0 0 1 0 0 1 0 0 1 0 0 1 0 0 1 0 0 1 0 0 1 0.09801775 0.9951847 1.88053e-6 0.09801614 0.9951848 0 0.2902844 0.9569405 5.93853e-7 0.2902839 0.9569407 0 0.4713972 0.8819211 -5.54262e-7 0.4713976 0.8819208 0 0.6343933 0.7730104 -1.02934e-6 0.634394 0.77301 0 0.77301 0.6343938 -3.56311e-7 0.7730102 0.6343935 0 0.8819214 0.4713966 2.37541e-7 0.8819213 0.4713968 0 0.9569405 0.2902844 5.93853e-7 0.9569403 0.2902849 0 0.9951847 0.09801775 1.76176e-6 0.9951844 0.09801924 0 0.9951847 -0.09801733 2.49418e-6 0.995185 -0.09801524 0 0.9569403 -0.2902848 -1.14812e-6 0.95694 -0.2902857 0 0.8819215 -0.4713962 -1.58361e-7 0.8819215 -0.4713963 0 0.77301 -0.6343938 -3.56311e-7 0.77301 -0.634394 0 0.6343938 -0.77301 -3.56311e-7 0.6343935 -0.7730102 0 0.4713962 -0.8819215 0 0.4713962 -0.8819216 0 0.2902846 -0.9569404 -1.44504e-6 0.2902834 -0.9569407 0 0.09801727 -0.9951847 2.4348e-6 0.09801936 -0.9951845 0 -0.09801775 -0.9951847 1.79145e-6 -0.09801626 -0.9951848 0 -0.2902851 -0.9569402 1.97951e-6 -0.2902835 -0.9569408 0 -0.4713978 -0.8819208 1.86074e-6 -0.4713963 -0.8819215 0 -0.6343933 -0.7730104 -1.46484e-6 -0.6343943 -0.7730097 0 -0.7730111 -0.6343924 2.37541e-7 -0.773011 -0.6343926 0 -0.8819214 -0.4713966 -1.78156e-6 -0.881922 -0.4713952 0 -0.9569409 -0.290283 -1.76176e-6 -0.9569413 -0.2902815 0 -0.9951848 -0.09801727 0 -0.9951848 -0.09801727 0 -0.9951846 0.09801876 6.8293e-7 -0.9951846 0.09801816 0 -0.9569401 0.2902857 0 -0.95694 0.2902857 0 -0.8819208 0.4713978 -1.26688e-6 -0.8819202 0.4713987 0 -0.7730099 0.6343939 -5.54262e-7 -0.7730097 0.6343943 0 -0.634392 0.7730115 -5.14672e-7 -0.6343916 0.7730118 0 -0.4713954 0.8819218 -3.16721e-7 -0.4713952 0.881922 0 0 0 1 -0.09801697 0.9951847 -1.14812e-6 -0.09801602 0.9951848 0 -0.2902832 0.9569409 -2.57336e-7 -0.290283 0.9569408 0 0 0 1 0 0 1 0 0 1 0 0 1 0 0 1 0 0 1 0 0 1 0 0 1 0 0 1 0 0 1 0 0 1 0 0 1 0 0 1 0 0 1 0 0 1 0 0 1 0 0 1 0 0 1 0 0 1 0 0 1 0 0 1 0 0 1 0 0 1 0 0 1 0 0 1 0 0 1 0 0 1 0 0 1 0 0 1 0 0 1 0 0 1 0 0 1 0 0 1 0 0 1 0 0 1 0 0 1 0 0 1 0 0 1 0 0 1 0 0 1 0 0 1 0 0 1 0 0 1 0 0 1 0 0 1 0 0 1 0 0 1 0 0 1 0 0 1 0 0 1 0 0 1 0 0 1 0 0 1 0 0 1 0 0 1 0 0 1 0 0 1 0 0 1 0 0 1 0 0 1 0 0 1 0 0 1 0 0 1</float_array>
          <technique_common>
            <accessor source="#Cylinder-mesh-normals-array" count="224" stride="3">
              <param name="X" type="float"/>
              <param name="Y" type="float"/>
              <param name="Z" type="float"/>
            </accessor>
          </technique_common>
        </source>
        <source id="Cylinder-mesh-map-0">
          <float_array id="Cylinder-mesh-map-0-array" count="1344">0.4317944 0.278572 0.4324262 0.2766568 0.4346455 0.2770936 0.4365931 0.2795264 0.4368391 0.2775248 0.4391009 0.2775202 0.4414858 0.2795264 0.4413365 0.2775151 0.443554 0.2770694 0.4462844 0.2785717 0.4457456 0.2766283 0.4478335 0.2757585 0.4508046 0.2766993 0.449897 0.2748983 0.4517751 0.273638 0.4548726 0.273981 0.4536312 0.2723917 0.4552273 0.2707892 0.4583323 0.2705214 0.4568046 0.2692048 0.4580575 0.2673217 0.4610506 0.2664533 0.4592954 0.26546 0.4601568 0.2633685 0.4629231 0.2619328 0.4610078 0.2613011 0.4614445 0.2590817 0.4638775 0.2571338 0.4618757 0.2568879 0.4618712 0.254626 0.4638775 0.252241 0.4618663 0.2523903 0.4614205 0.2501727 0.4629228 0.2474422 0.4609794 0.2479808 0.4601097 0.245893 0.4610506 0.242922 0.4592497 0.2438295 0.4579893 0.2419513 0.4583324 0.2388538 0.4567432 0.2400951 0.4551405 0.2384991 0.4548729 0.2353941 0.4535562 0.2369217 0.451673 0.2356688 0.4508047 0.2326757 0.4498115 0.2344308 0.4477202 0.2335693 0.4462848 0.2308033 0.445653 0.2327183 0.443434 0.2322814 0.4414866 0.2298486 0.4412406 0.2318502 0.4389789 0.2318546 0.4365941 0.2298485 0.4367434 0.2318596 0.4345259 0.2323052 0.4317955 0.2308028 0.4323343 0.2327463 0.4302463 0.2336161 0.4272752 0.2326753 0.4281828 0.2344762 0.4263046 0.2357366 0.4232071 0.2353935 0.4244486 0.2369828 0.4228524 0.2385854 0.4197474 0.2388532 0.4212751 0.2401699 0.4200222 0.242053 0.417029 0.2429215 0.4187842 0.2439148 0.4179228 0.2460062 0.4151564 0.2474419 0.4170718 0.2480736 0.416635 0.2502931 0.4142019 0.252241 0.4162037 0.252487 0.4162082 0.254749 0.4142019 0.257134 0.4162131 0.2569847 0.4166589 0.2592024 0.4151565 0.261933 0.4171 0.2613943 0.4179697 0.2634823 0.4170287 0.2664533 0.4188297 0.2655459 0.4200899 0.2674241 0.4197466 0.2705214 0.4213359 0.26928 0.4229385 0.2708764 0.4263046 0.2357366 0.4281828 0.2344762 0.4293618 0.2366814 0.4272742 0.2766996 0.4282675 0.2749444 0.4303589 0.2758059 0.4232062 0.2739812 0.4245228 0.2724536 0.4264059 0.2737066 0.4478335 0.2757585 0.4468712 0.273464 0.448718 0.2726931 0.4162082 0.254749 0.4162037 0.252487 0.4186924 0.2527319 0.4345259 0.2323052 0.435022 0.2347434 0.4330604 0.2351392 0.4264059 0.2737066 0.4245228 0.2724536 0.4261088 0.2705204 0.4601097 0.245893 0.4578147 0.2468553 0.4570449 0.2450082 0.4166589 0.2592024 0.4190978 0.258706 0.4194929 0.2606683 0.4478335 0.2757585 0.4457456 0.2766283 0.4450194 0.2742354 0.4614445 0.2590817 0.4610078 0.2613011 0.458615 0.2605755 0.4517751 0.273638 0.4503836 0.2715752 0.4520446 0.2704589 0.4302463 0.2336161 0.4312086 0.2359105 0.4293618 0.2366814 0.4551405 0.2384991 0.4567432 0.2400951 0.4548107 0.2416816 0.4345259 0.2323052 0.4367434 0.2318596 0.4369889 0.2343481 0.4179228 0.2460062 0.4187842 0.2439148 0.4209896 0.2450934 0.4579893 0.2419513 0.455926 0.2433429 0.4548107 0.2416816 0.4179697 0.2634823 0.4202646 0.26252 0.4210348 0.2643672 0.4200899 0.2674241 0.4188297 0.2655459 0.4210348 0.2643672 0.4552273 0.2707892 0.45346 0.2690374 0.4548715 0.2676186 0.4263046 0.2357366 0.4276962 0.2377994 0.4260351 0.2389157 0.4391009 0.2775202 0.4368391 0.2775248 0.4370837 0.2750361 0.4580575 0.2673217 0.4568046 0.2692048 0.4548715 0.2676186 0.4601097 0.245893 0.4609794 0.2479808 0.4585866 0.2487069 0.4551405 0.2384991 0.4533884 0.2402665 0.4519703 0.2388547 0.4200899 0.2674241 0.4221528 0.2660326 0.4232686 0.2676935 0.443434 0.2322814 0.445653 0.2327183 0.4449272 0.2351108 0.4228524 0.2385854 0.4244486 0.2369828 0.4260351 0.2389157 0.4580575 0.2673217 0.4559823 0.2659482 0.4570901 0.2642815 0.4228524 0.2385854 0.4246197 0.2403371 0.4232082 0.241756 0.4166589 0.2592024 0.4162131 0.2569847 0.4187014 0.2567393 0.4303589 0.2758059 0.4282675 0.2749444 0.4294459 0.2727389 0.451673 0.2356688 0.4502995 0.237744 0.4486328 0.2366359 0.4229385 0.2708764 0.4246904 0.2691093 0.4261088 0.2705204 0.4517751 0.273638 0.449897 0.2748983 0.448718 0.2726931 0.4618712 0.254626 0.4618757 0.2568879 0.4593872 0.2566429 0.4601568 0.2633685 0.4578534 0.2624263 0.458615 0.2605755 0.4200222 0.242053 0.4220974 0.2434265 0.4209896 0.2450934 0.451673 0.2356688 0.4535562 0.2369217 0.4519703 0.2388547 0.4302463 0.2336161 0.4323343 0.2327463 0.4330604 0.2351392 0.4346455 0.2770936 0.4351202 0.2746512 0.4370837 0.2750361 0.416635 0.2502931 0.4170718 0.2480736 0.4194645 0.2487992 0.4477202 0.2335693 0.4467779 0.2358724 0.4449272 0.2351108 0.4264059 0.2737066 0.4277794 0.2716317 0.4294459 0.2727389 0.4229385 0.2708764 0.4213359 0.26928 0.4232686 0.2676935 0.4614445 0.2590817 0.4590014 0.258607 0.4593872 0.2566429 0.4179228 0.2460062 0.4202262 0.2469485 0.4194645 0.2487992 0.443554 0.2770694 0.4413365 0.2775151 0.4410911 0.2750266 0.4601568 0.2633685 0.4592954 0.26546 0.4570901 0.2642815 0.4391009 0.2775202 0.43909 0.2750321 0.4410911 0.2750266 0.443434 0.2322814 0.4429592 0.2347238 0.4409959 0.2343385 0.4346455 0.2770936 0.4324262 0.2766568 0.4331517 0.2742637 0.4579893 0.2419513 0.4592497 0.2438295 0.4570449 0.2450082 0.4303589 0.2758059 0.4313011 0.273503 0.4331517 0.2742637 0.4389789 0.2318546 0.4412406 0.2318502 0.4409959 0.2343385 0.4618712 0.254626 0.4593826 0.2546368 0.4593781 0.2526357 0.4200222 0.242053 0.4212751 0.2401699 0.4232082 0.241756 0.416635 0.2502931 0.4190782 0.2507678 0.4186924 0.2527319 0.4179697 0.2634823 0.4171 0.2613943 0.4194929 0.2606683 0.443554 0.2770694 0.4430578 0.2746313 0.4450194 0.2742354 0.4389789 0.2318546 0.4389896 0.2343426 0.4369889 0.2343481 0.4552273 0.2707892 0.4536312 0.2723917 0.4520446 0.2704589 0.4614205 0.2501727 0.4618663 0.2523903 0.4593781 0.2526357 0.4614205 0.2501727 0.4589817 0.2506691 0.4585866 0.2487069 0.4162082 0.254749 0.4186969 0.2547382 0.4187014 0.2567393 0.4477202 0.2335693 0.4498115 0.2344308 0.4486328 0.2366359 0.4346455 0.2770936 0.4365931 0.2795264 0.4317944 0.278572 0.4365931 0.2795264 0.4346455 0.2770936 0.4368391 0.2775248 0.4391009 0.2775202 0.4414858 0.2795264 0.4365931 0.2795264 0.4414858 0.2795264 0.4391009 0.2775202 0.4413365 0.2775151 0.443554 0.2770694 0.4462844 0.2785717 0.4414858 0.2795264 0.4462844 0.2785717 0.443554 0.2770694 0.4457456 0.2766283 0.4478335 0.2757585 0.4508046 0.2766993 0.4462844 0.2785717 0.4508046 0.2766993 0.4478335 0.2757585 0.449897 0.2748983 0.4517751 0.273638 0.4548726 0.273981 0.4508046 0.2766993 0.4548726 0.273981 0.4517751 0.273638 0.4536312 0.2723917 0.4552273 0.2707892 0.4583323 0.2705214 0.4548726 0.273981 0.4583323 0.2705214 0.4552273 0.2707892 0.4568046 0.2692048 0.4580575 0.2673217 0.4610506 0.2664533 0.4583323 0.2705214 0.4610506 0.2664533 0.4580575 0.2673217 0.4592954 0.26546 0.4601568 0.2633685 0.4629231 0.2619328 0.4610506 0.2664533 0.4629231 0.2619328 0.4601568 0.2633685 0.4610078 0.2613011 0.4614445 0.2590817 0.4638775 0.2571338 0.4629231 0.2619328 0.4638775 0.2571338 0.4614445 0.2590817 0.4618757 0.2568879 0.4618712 0.254626 0.4638775 0.252241 0.4638775 0.2571338 0.4638775 0.252241 0.4618712 0.254626 0.4618663 0.2523903 0.4614205 0.2501727 0.4629228 0.2474422 0.4638775 0.252241 0.4629228 0.2474422 0.4614205 0.2501727 0.4609794 0.2479808 0.4601097 0.245893 0.4610506 0.242922 0.4629228 0.2474422 0.4610506 0.242922 0.4601097 0.245893 0.4592497 0.2438295 0.4579893 0.2419513 0.4583324 0.2388538 0.4610506 0.242922 0.4583324 0.2388538 0.4579893 0.2419513 0.4567432 0.2400951 0.4551405 0.2384991 0.4548729 0.2353941 0.4583324 0.2388538 0.4548729 0.2353941 0.4551405 0.2384991 0.4535562 0.2369217 0.451673 0.2356688 0.4508047 0.2326757 0.4548729 0.2353941 0.4508047 0.2326757 0.451673 0.2356688 0.4498115 0.2344308 0.4477202 0.2335693 0.4462848 0.2308033 0.4508047 0.2326757 0.4462848 0.2308033 0.4477202 0.2335693 0.445653 0.2327183 0.443434 0.2322814 0.4414866 0.2298486 0.4462848 0.2308033 0.4414866 0.2298486 0.443434 0.2322814 0.4412406 0.2318502 0.4389789 0.2318546 0.4365941 0.2298485 0.4414866 0.2298486 0.4365941 0.2298485 0.4389789 0.2318546 0.4367434 0.2318596 0.4345259 0.2323052 0.4317955 0.2308028 0.4365941 0.2298485 0.4317955 0.2308028 0.4345259 0.2323052 0.4323343 0.2327463 0.4302463 0.2336161 0.4272752 0.2326753 0.4317955 0.2308028 0.4272752 0.2326753 0.4302463 0.2336161 0.4281828 0.2344762 0.4263046 0.2357366 0.4232071 0.2353935 0.4272752 0.2326753 0.4232071 0.2353935 0.4263046 0.2357366 0.4244486 0.2369828 0.4228524 0.2385854 0.4197474 0.2388532 0.4232071 0.2353935 0.4197474 0.2388532 0.4228524 0.2385854 0.4212751 0.2401699 0.4200222 0.242053 0.417029 0.2429215 0.4197474 0.2388532 0.417029 0.2429215 0.4200222 0.242053 0.4187842 0.2439148 0.4179228 0.2460062 0.4151564 0.2474419 0.417029 0.2429215 0.4151564 0.2474419 0.4179228 0.2460062 0.4170718 0.2480736 0.416635 0.2502931 0.4142019 0.252241 0.4151564 0.2474419 0.4142019 0.252241 0.416635 0.2502931 0.4162037 0.252487 0.4162082 0.254749 0.4142019 0.257134 0.4142019 0.252241 0.4142019 0.257134 0.4162082 0.254749 0.4162131 0.2569847 0.4166589 0.2592024 0.4151565 0.261933 0.4142019 0.257134 0.4151565 0.261933 0.4166589 0.2592024 0.4171 0.2613943 0.4179697 0.2634823 0.4170287 0.2664533 0.4151565 0.261933 0.4170287 0.2664533 0.4179697 0.2634823 0.4188297 0.2655459 0.4200899 0.2674241 0.4197466 0.2705214 0.4170287 0.2664533 0.4197466 0.2705214 0.4200899 0.2674241 0.4213359 0.26928 0.4229385 0.2708764 0.4232062 0.2739812 0.4197466 0.2705214 0.4232062 0.2739812 0.4229385 0.2708764 0.4245228 0.2724536 0.4276962 0.2377994 0.4263046 0.2357366 0.4293618 0.2366814 0.4303589 0.2758059 0.4317944 0.278572 0.4272742 0.2766996 0.4317944 0.278572 0.4303589 0.2758059 0.4324262 0.2766568 0.4264059 0.2737066 0.4272742 0.2766996 0.4232062 0.2739812 0.4272742 0.2766996 0.4264059 0.2737066 0.4282675 0.2749444 0.449897 0.2748983 0.4478335 0.2757585 0.448718 0.2726931 0.4186969 0.2547382 0.4162082 0.254749 0.4186924 0.2527319 0.4323343 0.2327463 0.4345259 0.2323052 0.4330604 0.2351392 0.4277794 0.2716317 0.4264059 0.2737066 0.4261088 0.2705204 0.4592497 0.2438295 0.4601097 0.245893 0.4570449 0.2450082 0.4171 0.2613943 0.4166589 0.2592024 0.4194929 0.2606683 0.4468712 0.273464 0.4478335 0.2757585 0.4450194 0.2742354 0.4590014 0.258607 0.4614445 0.2590817 0.458615 0.2605755 0.4536312 0.2723917 0.4517751 0.273638 0.4520446 0.2704589 0.4281828 0.2344762 0.4302463 0.2336161 0.4293618 0.2366814 0.4533884 0.2402665 0.4551405 0.2384991 0.4548107 0.2416816 0.435022 0.2347434 0.4345259 0.2323052 0.4369889 0.2343481 0.4202262 0.2469485 0.4179228 0.2460062 0.4209896 0.2450934 0.4567432 0.2400951 0.4579893 0.2419513 0.4548107 0.2416816 0.4188297 0.2655459 0.4179697 0.2634823 0.4210348 0.2643672 0.4221528 0.2660326 0.4200899 0.2674241 0.4210348 0.2643672 0.4568046 0.2692048 0.4552273 0.2707892 0.4548715 0.2676186 0.4244486 0.2369828 0.4263046 0.2357366 0.4260351 0.2389157 0.43909 0.2750321 0.4391009 0.2775202 0.4370837 0.2750361 0.4559823 0.2659482 0.4580575 0.2673217 0.4548715 0.2676186 0.4578147 0.2468553 0.4601097 0.245893 0.4585866 0.2487069 0.4535562 0.2369217 0.4551405 0.2384991 0.4519703 0.2388547 0.4213359 0.26928 0.4200899 0.2674241 0.4232686 0.2676935 0.4429592 0.2347238 0.443434 0.2322814 0.4449272 0.2351108 0.4246197 0.2403371 0.4228524 0.2385854 0.4260351 0.2389157 0.4592954 0.26546 0.4580575 0.2673217 0.4570901 0.2642815 0.4212751 0.2401699 0.4228524 0.2385854 0.4232082 0.241756 0.4190978 0.258706 0.4166589 0.2592024 0.4187014 0.2567393 0.4313011 0.273503 0.4303589 0.2758059 0.4294459 0.2727389 0.4498115 0.2344308 0.451673 0.2356688 0.4486328 0.2366359 0.4245228 0.2724536 0.4229385 0.2708764 0.4261088 0.2705204 0.4503836 0.2715752 0.4517751 0.273638 0.448718 0.2726931 0.4593826 0.2546368 0.4618712 0.254626 0.4593872 0.2566429 0.4610078 0.2613011 0.4601568 0.2633685 0.458615 0.2605755 0.4187842 0.2439148 0.4200222 0.242053 0.4209896 0.2450934 0.4502995 0.237744 0.451673 0.2356688 0.4519703 0.2388547 0.4312086 0.2359105 0.4302463 0.2336161 0.4330604 0.2351392 0.4368391 0.2775248 0.4346455 0.2770936 0.4370837 0.2750361 0.4190782 0.2507678 0.416635 0.2502931 0.4194645 0.2487992 0.445653 0.2327183 0.4477202 0.2335693 0.4449272 0.2351108 0.4282675 0.2749444 0.4264059 0.2737066 0.4294459 0.2727389 0.4246904 0.2691093 0.4229385 0.2708764 0.4232686 0.2676935 0.4618757 0.2568879 0.4614445 0.2590817 0.4593872 0.2566429 0.4170718 0.2480736 0.4179228 0.2460062 0.4194645 0.2487992 0.4430578 0.2746313 0.443554 0.2770694 0.4410911 0.2750266 0.4578534 0.2624263 0.4601568 0.2633685 0.4570901 0.2642815 0.4413365 0.2775151 0.4391009 0.2775202 0.4410911 0.2750266 0.4412406 0.2318502 0.443434 0.2322814 0.4409959 0.2343385 0.4351202 0.2746512 0.4346455 0.2770936 0.4331517 0.2742637 0.455926 0.2433429 0.4579893 0.2419513 0.4570449 0.2450082 0.4324262 0.2766568 0.4303589 0.2758059 0.4331517 0.2742637 0.4389896 0.2343426 0.4389789 0.2318546 0.4409959 0.2343385 0.4618663 0.2523903 0.4618712 0.254626 0.4593781 0.2526357 0.4220974 0.2434265 0.4200222 0.242053 0.4232082 0.241756 0.4162037 0.252487 0.416635 0.2502931 0.4186924 0.2527319 0.4202646 0.26252 0.4179697 0.2634823 0.4194929 0.2606683 0.4457456 0.2766283 0.443554 0.2770694 0.4450194 0.2742354 0.4367434 0.2318596 0.4389789 0.2318546 0.4369889 0.2343481 0.45346 0.2690374 0.4552273 0.2707892 0.4520446 0.2704589 0.4589817 0.2506691 0.4614205 0.2501727 0.4593781 0.2526357 0.4609794 0.2479808 0.4614205 0.2501727 0.4585866 0.2487069 0.4162131 0.2569847 0.4162082 0.254749 0.4187014 0.2567393 0.4467779 0.2358724 0.4477202 0.2335693 0.4486328 0.2366359</float_array>
          <technique_common>
            <accessor source="#Cylinder-mesh-map-0-array" count="672" stride="2">
              <param name="S" type="float"/>
              <param name="T" type="float"/>
            </accessor>
          </technique_common>
        </source>
        <vertices id="Cylinder-mesh-vertices">
          <input semantic="POSITION" source="#Cylinder-mesh-positions"/>
        </vertices>
        <polylist count="224">
          <input semantic="VERTEX" source="#Cylinder-mesh-vertices" offset="0"/>
          <input semantic="NORMAL" source="#Cylinder-mesh-normals" offset="1"/>
          <input semantic="TEXCOORD" source="#Cylinder-mesh-map-0" offset="2" set="0"/>
          <vcount>3 3 3 3 3 3 3 3 3 3 3 3 3 3 3 3 3 3 3 3 3 3 3 3 3 3 3 3 3 3 3 3 3 3 3 3 3 3 3 3 3 3 3 3 3 3 3 3 3 3 3 3 3 3 3 3 3 3 3 3 3 3 3 3 3 3 3 3 3 3 3 3 3 3 3 3 3 3 3 3 3 3 3 3 3 3 3 3 3 3 3 3 3 3 3 3 3 3 3 3 3 3 3 3 3 3 3 3 3 3 3 3 3 3 3 3 3 3 3 3 3 3 3 3 3 3 3 3 3 3 3 3 3 3 3 3 3 3 3 3 3 3 3 3 3 3 3 3 3 3 3 3 3 3 3 3 3 3 3 3 3 3 3 3 3 3 3 3 3 3 3 3 3 3 3 3 3 3 3 3 3 3 3 3 3 3 3 3 3 3 3 3 3 3 3 3 3 3 3 3 3 3 3 3 3 3 3 3 3 3 3 3 3 3 3 3 3 3 3 3 3 3 3 3 </vcount>
          <p>0 0 0 1 0 1 64 0 2 2 1 3 3 1 4 65 1 5 4 2 6 5 2 7 66 2 8 6 3 9 7 3 10 67 3 11 8 4 12 9 4 13 68 4 14 10 5 15 11 5 16 69 5 17 12 6 18 13 6 19 70 6 20 14 7 21 15 7 22 71 7 23 16 8 24 17 8 25 72 8 26 18 9 27 19 9 28 73 9 29 20 10 30 21 10 31 74 10 32 22 11 33 23 11 34 75 11 35 24 12 36 25 12 37 76 12 38 26 13 39 27 13 40 77 13 41 28 14 42 29 14 43 78 14 44 30 15 45 31 15 46 79 15 47 32 16 48 33 16 49 80 16 50 34 17 51 35 17 52 81 17 53 36 18 54 37 18 55 82 18 56 38 19 57 39 19 58 83 19 59 40 20 60 41 20 61 84 20 62 42 21 63 43 21 64 85 21 65 44 22 66 45 22 67 86 22 68 46 23 69 47 23 70 87 23 71 48 24 72 49 24 73 88 24 74 50 25 75 51 25 76 89 25 77 52 26 78 53 26 79 90 26 80 54 27 81 55 27 82 91 27 83 56 28 84 57 28 85 92 28 86 58 29 87 59 29 88 93 29 89 84 30 90 41 30 91 137 30 92 62 31 93 63 31 94 95 31 95 60 32 96 61 32 97 94 32 98 67 33 99 102 33 100 105 33 101 89 34 102 51 34 103 147 34 104 82 35 105 132 35 106 135 35 107 94 36 108 61 36 109 157 36 110 75 37 111 118 37 112 121 37 113 90 38 114 148 38 115 151 38 116 67 39 117 7 39 118 103 39 119 72 40 120 17 40 121 113 40 122 68 41 123 104 41 124 107 41 125 83 42 126 134 42 127 137 42 128 77 43 129 27 43 130 123 43 131 82 44 132 37 44 133 133 44 134 87 45 135 47 45 136 143 45 137 76 46 138 120 46 139 123 46 140 91 47 141 150 47 142 153 47 143 92 48 144 57 48 145 153 48 146 69 49 147 106 49 148 109 49 149 84 50 150 136 50 151 139 50 152 65 51 153 3 51 154 99 51 155 70 52 156 13 52 157 109 52 158 75 53 159 23 53 160 119 53 161 77 54 162 122 54 163 125 54 164 92 55 165 152 55 166 155 55 167 80 56 168 33 56 169 129 56 170 85 57 171 43 57 172 139 57 173 70 58 174 108 58 175 111 58 176 85 59 177 138 59 178 141 59 179 90 60 180 53 60 181 149 60 182 95 61 183 63 61 184 159 61 185 78 62 186 124 62 187 127 62 188 93 63 189 154 63 190 157 63 191 68 64 192 9 64 193 105 64 194 73 65 195 19 65 196 115 65 197 71 66 198 110 66 199 113 66 200 86 67 201 140 67 202 143 67 203 78 68 204 29 68 205 125 68 206 83 69 207 39 69 208 135 69 209 64 70 210 96 70 211 99 70 212 88 71 213 49 71 214 145 71 215 79 72 216 126 72 217 129 72 218 94 73 219 156 73 220 159 73 221 93 74 222 59 74 223 155 74 224 72 75 225 112 75 226 115 75 227 87 76 228 142 76 229 145 76 230 66 77 231 5 77 232 101 77 233 71 78 234 15 78 235 111 78 236 65 79 237 98 79 238 101 79 239 80 80 240 128 80 241 131 80 242 64 81 243 1 81 244 97 81 245 76 82 246 25 82 247 121 82 248 95 83 249 158 83 250 97 83 251 81 84 252 35 84 253 131 84 254 73 85 255 114 85 256 117 85 257 86 86 258 45 86 259 141 86 260 88 87 261 144 87 262 147 87 263 91 88 264 55 88 265 151 88 266 66 89 267 100 89 268 103 89 269 81 90 270 130 90 271 133 90 272 69 91 273 11 91 274 107 91 275 74 92 276 21 92 277 117 92 278 74 93 279 116 93 280 119 93 281 89 94 282 146 94 283 149 94 284 79 95 285 31 95 286 127 95 287 64 96 288 2 96 289 0 96 290 2 97 291 64 97 292 3 97 293 65 98 294 4 98 295 2 98 296 4 99 297 65 99 298 5 99 299 66 100 300 6 100 301 4 100 302 6 101 303 66 101 304 7 101 305 67 102 306 8 102 307 6 102 308 8 103 309 67 103 310 9 103 311 68 104 312 10 104 313 8 104 314 10 105 315 68 105 316 11 105 317 69 106 318 12 106 319 10 106 320 12 107 321 69 107 322 13 107 323 70 108 324 14 108 325 12 108 326 14 109 327 70 109 328 15 109 329 71 110 330 16 110 331 14 110 332 16 111 333 71 111 334 17 111 335 72 112 336 18 112 337 16 112 338 18 113 339 72 113 340 19 113 341 73 114 342 20 114 343 18 114 344 20 115 345 73 115 346 21 115 347 74 116 348 22 116 349 20 116 350 22 117 351 74 117 352 23 117 353 75 118 354 24 118 355 22 118 356 24 119 357 75 119 358 25 119 359 76 120 360 26 120 361 24 120 362 26 121 363 76 121 364 27 121 365 77 122 366 28 122 367 26 122 368 28 123 369 77 123 370 29 123 371 78 124 372 30 124 373 28 124 374 30 125 375 78 125 376 31 125 377 79 126 378 32 126 379 30 126 380 32 127 381 79 127 382 33 127 383 80 128 384 34 128 385 32 128 386 34 129 387 80 129 388 35 129 389 81 130 390 36 130 391 34 130 392 36 131 393 81 131 394 37 131 395 82 132 396 38 132 397 36 132 398 38 133 399 82 133 400 39 133 401 83 134 402 40 134 403 38 134 404 40 135 405 83 135 406 41 135 407 84 136 408 42 136 409 40 136 410 42 137 411 84 137 412 43 137 413 85 138 414 44 138 415 42 138 416 44 139 417 85 139 418 45 139 419 86 140 420 46 140 421 44 140 422 46 141 423 86 141 424 47 141 425 87 142 426 48 142 427 46 142 428 48 143 429 87 143 430 49 143 431 88 144 432 50 144 433 48 144 434 50 145 435 88 145 436 51 145 437 89 146 438 52 146 439 50 146 440 52 147 441 89 147 442 53 147 443 90 148 444 54 148 445 52 148 446 54 149 447 90 149 448 55 149 449 91 150 450 56 150 451 54 150 452 56 151 453 91 151 454 57 151 455 92 152 456 58 152 457 56 152 458 58 153 459 92 153 460 59 153 461 93 154 462 60 154 463 58 154 464 60 155 465 93 155 466 61 155 467 136 156 468 84 156 469 137 156 470 95 157 471 0 157 472 62 157 473 0 158 474 95 158 475 1 158 476 94 159 477 62 159 478 60 159 479 62 160 480 94 160 481 63 160 482 9 161 483 67 161 484 105 161 485 146 162 486 89 162 487 147 162 488 39 163 489 82 163 490 135 163 491 156 164 492 94 164 493 157 164 494 25 165 495 75 165 496 121 165 497 55 166 498 90 166 499 151 166 500 102 167 501 67 167 502 103 167 503 112 168 504 72 168 505 113 168 506 11 169 507 68 169 508 107 169 509 41 170 510 83 170 511 137 170 512 122 171 513 77 171 514 123 171 515 132 172 516 82 172 517 133 172 518 142 173 519 87 173 520 143 173 521 27 174 522 76 174 523 123 174 524 57 175 525 91 175 526 153 175 527 152 176 528 92 176 529 153 176 530 13 177 531 69 177 532 109 177 533 43 178 534 84 178 535 139 178 536 98 179 537 65 179 538 99 179 539 108 180 540 70 180 541 109 180 542 118 181 543 75 181 544 119 181 545 29 182 546 77 182 547 125 182 548 59 183 549 92 183 550 155 183 551 128 184 552 80 184 553 129 184 554 138 185 555 85 185 556 139 185 557 15 186 558 70 186 559 111 186 560 45 187 561 85 187 562 141 187 563 148 188 564 90 188 565 149 188 566 158 189 567 95 189 568 159 189 569 31 190 570 78 190 571 127 190 572 61 191 573 93 191 574 157 191 575 104 192 576 68 192 577 105 192 578 114 193 579 73 193 580 115 193 581 17 194 582 71 194 583 113 194 584 47 195 585 86 195 586 143 195 587 124 196 588 78 196 589 125 196 590 134 197 591 83 197 592 135 197 593 3 198 594 64 198 595 99 198 596 144 199 597 88 199 598 145 199 599 33 200 600 79 200 601 129 200 602 63 201 603 94 201 604 159 201 605 154 202 606 93 202 607 155 202 608 19 203 609 72 203 610 115 203 611 49 204 612 87 204 613 145 204 614 100 205 615 66 205 616 101 205 617 110 206 618 71 206 619 111 206 620 5 207 621 65 207 622 101 207 623 35 208 624 80 208 625 131 208 626 96 209 627 64 209 628 97 209 629 120 210 630 76 210 631 121 210 632 1 211 633 95 211 634 97 211 635 130 212 636 81 212 637 131 212 638 21 213 639 73 213 640 117 213 641 140 214 642 86 214 643 141 214 644 51 215 645 88 215 646 147 215 647 150 216 648 91 216 649 151 216 650 7 217 651 66 217 652 103 217 653 37 218 654 81 218 655 133 218 656 106 219 657 69 219 658 107 219 659 116 220 660 74 220 661 117 220 662 23 221 663 74 221 664 119 221 665 53 222 666 89 222 667 149 222 668 126 223 669 79 223 670 127 223 671</p>
        </polylist>
      </mesh>
    </geometry>
    <geometry id="Cube_002-mesh" name="Cube.002">
      <mesh>
        <source id="Cube_002-mesh-positions">
          <float_array id="Cube_002-mesh-positions-array" count="24">-0.00999999 -0.00999999 -0.00999999 -0.00999999 -0.00999999 0.00999999 -0.00999999 0.00999999 -0.00999999 -0.00999999 0.00999999 0.00999999 0.00999999 -0.00999999 -0.00999999 0.00999999 -0.00999999 0.00999999 0.00999999 0.00999999 -0.00999999 0.00999999 0.00999999 0.00999999</float_array>
          <technique_common>
            <accessor source="#Cube_002-mesh-positions-array" count="8" stride="3">
              <param name="X" type="float"/>
              <param name="Y" type="float"/>
              <param name="Z" type="float"/>
            </accessor>
          </technique_common>
        </source>
        <source id="Cube_002-mesh-normals">
          <float_array id="Cube_002-mesh-normals-array" count="36">-1 0 0 0 1 0 1 0 0 0 -1 0 0 0 -1 0 0 1 -1 0 0 0 1 0 1 0 0 0 -1 0 0 0 -1 0 0 1</float_array>
          <technique_common>
            <accessor source="#Cube_002-mesh-normals-array" count="12" stride="3">
              <param name="X" type="float"/>
              <param name="Y" type="float"/>
              <param name="Z" type="float"/>
            </accessor>
          </technique_common>
        </source>
        <source id="Cube_002-mesh-map-0">
          <float_array id="Cube_002-mesh-map-0-array" count="72">0.1577125 0.03134989 0.15615 0.1295876 0.02978748 0.1249001 0.8858376 0.9313499 0.884275 0.4108377 0.07353746 0.4108377 0.02041244 0.1061501 0.05322498 0.05322498 0.1233376 0.03759998 0.7797875 0.2842751 0.7829124 0.09228748 0.9592751 0.1157249 0.01416248 0.02509993 0.09677511 0.02978748 0.09833759 0.1139626 0.0858376 0.1030251 0.003224909 0.09990012 9.998e-5 9.998e-5 0.03759998 0.02822506 0.1577125 0.03134989 0.02978748 0.1249001 0.0751 0.9329126 0.8858376 0.9313499 0.07353746 0.4108377 0.2124 0.1014626 0.02041244 0.1061501 0.1233376 0.03759998 0.9405251 0.2920876 0.7797875 0.2842751 0.9592751 0.1157249 0.0126 0.1170876 0.01416248 0.02509993 0.09833759 0.1139626 0.0858376 0.009474933 0.0858376 0.1030251 9.998e-5 9.998e-5</float_array>
          <technique_common>
            <accessor source="#Cube_002-mesh-map-0-array" count="36" stride="2">
              <param name="S" type="float"/>
              <param name="T" type="float"/>
            </accessor>
          </technique_common>
        </source>
        <vertices id="Cube_002-mesh-vertices">
          <input semantic="POSITION" source="#Cube_002-mesh-positions"/>
        </vertices>
        <polylist material="Material_001-material" count="12">
          <input semantic="VERTEX" source="#Cube_002-mesh-vertices" offset="0"/>
          <input semantic="NORMAL" source="#Cube_002-mesh-normals" offset="1"/>
          <input semantic="TEXCOORD" source="#Cube_002-mesh-map-0" offset="2" set="0"/>
          <vcount>3 3 3 3 3 3 3 3 3 3 3 3 </vcount>
          <p>3 0 0 2 0 1 0 0 2 7 1 3 6 1 4 2 1 5 5 2 6 4 2 7 6 2 8 1 3 9 0 3 10 4 3 11 2 4 12 6 4 13 4 4 14 7 5 15 3 5 16 1 5 17 1 6 18 3 6 19 0 6 20 3 7 21 7 7 22 2 7 23 7 8 24 5 8 25 6 8 26 5 9 27 1 9 28 4 9 29 0 10 30 2 10 31 4 10 32 5 11 33 7 11 34 1 11 35</p>
        </polylist>
      </mesh>
    </geometry>
  </library_geometries>
  <library_controllers/>
  <library_visual_scenes>
    <visual_scene id="Scene" name="Scene">
      <node id="Camera" name="Camera" type="NODE">
        <matrix sid="transform">0.6858805 -0.3173701 0.6548619 7.481132 0.7276338 0.3124686 -0.6106656 -6.50764 -0.01081678 0.8953432 0.4452454 5.343665 0 0 0 1</matrix>
        <instance_camera url="#Camera-camera"/>
      </node>
      <node id="Lamp" name="Lamp" type="NODE">
        <matrix sid="transform">-0.2908646 -0.7711008 0.5663932 4.076245 0.9551712 -0.1998834 0.2183912 1.005454 -0.05518906 0.6045247 0.7946723 5.903862 0 0 0 1</matrix>
        <instance_light url="#Lamp-light"/>
      </node>
      <node id="Camera_001" name="Camera_001" type="NODE">
        <matrix sid="transform">0.6858804 -0.3173701 0.6548619 7.481132 0.7276337 0.3124686 -0.6106656 -6.50764 -0.01081678 0.8953431 0.4452454 5.343665 0 0 0 1</matrix>
        <instance_camera url="#Camera_001-camera"/>
      </node>
      <node id="Lamp_001" name="Lamp_001" type="NODE">
        <matrix sid="transform">-0.2908648 -0.7711007 0.5663931 0.003312588 0.9551712 -0.1998834 0.2183913 4.766887 -0.05518911 0.6045247 0.7946723 1.011495 0 0 0 1</matrix>
        <instance_light url="#Lamp_001-light"/>
      </node>
      <node id="Hoop" name="Hoop" type="NODE">
        <matrix sid="transform">0.005494506 0 0 0 0 0.3937007 0 0.2528606 0 0 0.009433962 -0.007936851 0 0 0 1</matrix>
        <instance_geometry url="#Cylinder-mesh"/>
      </node>
      <node id="Backboard" name="Backboard" type="NODE">
        <matrix sid="transform">182 0 0 0 0 2.54 0 0 0 0 106 0 0 0 0 1</matrix>
        <instance_geometry url="#Cube_002-mesh">
          <bind_material>
            <technique_common>
              <instance_material symbol="Material_001-material" target="#Material_001-material"/>
            </technique_common>
          </bind_material>
        </instance_geometry>
      </node>
    </visual_scene>
  </library_visual_scenes>
  <scene>
    <instance_visual_scene url="#Scene"/>
  </scene>
</COLLADA>