<?xml version="1.0" encoding="utf-8"?>
<COLLADA xmlns="http://www.collada.org/2005/11/COLLADASchema" version="1.4.1">
  <asset>
    <contributor>
      <author>Blender User</author>
      <authoring_tool>Blender 2.74.0 commit date:2015-03-31, commit time:13:39, hash:000dfc0</authoring_tool>
    </contributor>
    <created>2015-07-20T21:44:38</created>
    <modified>2015-07-20T21:44:38</modified>
    <unit name="meter" meter="1"/>
    <up_axis>Z_UP</up_axis>
  </asset>
  <library_cameras>
    <camera id="Camera-camera" name="Camera">
      <optics>
        <technique_common>
          <perspective>
            <xfov sid="xfov">49.13434</xfov>
            <aspect_ratio>1.777778</aspect_ratio>
            <znear sid="znear">0.1</znear>
            <zfar sid="zfar">100</zfar>
          </perspective>
        </technique_common>
      </optics>
      <extra>
        <technique profile="blender">
          <YF_dofdist>0</YF_dofdist>
          <shiftx>0</shiftx>
          <shifty>0</shifty>
        </technique>
      </extra>
    </camera>
  </library_cameras>
  <library_lights>
    <light id="Lamp-light" name="Lamp">
      <technique_common>
        <point>
          <color sid="color">1 1 1</color>
          <constant_attenuation>1</constant_attenuation>
          <linear_attenuation>0</linear_attenuation>
          <quadratic_attenuation>0.00111109</quadratic_attenuation>
        </point>
      </technique_common>
      <extra>
        <technique profile="blender">
          <adapt_thresh>0.000999987</adapt_thresh>
          <area_shape>1</area_shape>
          <area_size>0.1</area_size>
          <area_sizey>0.1</area_sizey>
          <area_sizez>1</area_sizez>
          <atm_distance_factor>1</atm_distance_factor>
          <atm_extinction_factor>1</atm_extinction_factor>
          <atm_turbidity>2</atm_turbidity>
          <att1>0</att1>
          <att2>1</att2>
          <backscattered_light>1</backscattered_light>
          <bias>1</bias>
          <blue>1</blue>
          <buffers>1</buffers>
          <bufflag>0</bufflag>
          <bufsize>2880</bufsize>
          <buftype>2</buftype>
          <clipend>30.002</clipend>
          <clipsta>1.000799</clipsta>
          <compressthresh>0.04999995</compressthresh>
          <dist sid="blender_dist">29.99998</dist>
          <energy sid="blender_energy">1</energy>
          <falloff_type>2</falloff_type>
          <filtertype>0</filtertype>
          <flag>0</flag>
          <gamma sid="blender_gamma">1</gamma>
          <green>1</green>
          <halo_intensity sid="blnder_halo_intensity">1</halo_intensity>
          <horizon_brightness>1</horizon_brightness>
          <mode>8192</mode>
          <ray_samp>1</ray_samp>
          <ray_samp_method>1</ray_samp_method>
          <ray_samp_type>0</ray_samp_type>
          <ray_sampy>1</ray_sampy>
          <ray_sampz>1</ray_sampz>
          <red>1</red>
          <samp>3</samp>
          <shadhalostep>0</shadhalostep>
          <shadow_b sid="blender_shadow_b">0</shadow_b>
          <shadow_g sid="blender_shadow_g">0</shadow_g>
          <shadow_r sid="blender_shadow_r">0</shadow_r>
          <sky_colorspace>0</sky_colorspace>
          <sky_exposure>1</sky_exposure>
          <skyblendfac>1</skyblendfac>
          <skyblendtype>1</skyblendtype>
          <soft>3</soft>
          <spotblend>0.15</spotblend>
          <spotsize>75</spotsize>
          <spread>1</spread>
          <sun_brightness>1</sun_brightness>
          <sun_effect_type>0</sun_effect_type>
          <sun_intensity>1</sun_intensity>
          <sun_size>1</sun_size>
          <type>0</type>
        </technique>
      </extra>
    </light>
  </library_lights>
  <library_images/>
  <library_geometries>
    <geometry id="Icosphere-mesh" name="Icosphere">
      <mesh>
        <source id="Icosphere-mesh-positions">
          <float_array id="Icosphere-mesh-positions-array" count="126">0 0 -1 0.7236073 -0.5257253 -0.4472195 -0.276388 -0.8506492 -0.4472199 -0.8944262 0 -0.4472156 -0.276388 0.8506492 -0.4472199 0.7236073 0.5257253 -0.4472195 0.276388 -0.8506492 0.4472199 -0.7236073 -0.5257253 0.4472195 -0.7236073 0.5257253 0.4472195 0.276388 0.8506492 0.4472199 0.8944262 0 0.4472156 0 0 1 -0.1624555 -0.4999952 -0.8506544 0.4253227 -0.3090114 -0.8506542 0.2628688 -0.8090116 -0.5257377 0.8506479 0 -0.5257359 0.4253227 0.3090114 -0.8506542 -0.5257298 0 -0.8506517 -0.6881894 -0.4999969 -0.5257362 -0.1624555 0.4999952 -0.8506544 -0.6881894 0.4999969 -0.5257362 0.2628688 0.8090116 -0.5257377 0.9510579 -0.3090126 0 0.9510579 0.3090126 0 0 -1 0 0.5877856 -0.8090167 0 -0.9510579 -0.3090126 0 -0.5877856 -0.8090167 0 -0.5877856 0.8090167 0 -0.9510579 0.3090126 0 0.5877856 0.8090167 0 0 1 0 0.6881894 -0.4999969 0.5257362 -0.2628688 -0.8090116 0.5257377 -0.8506479 0 0.5257359 -0.2628688 0.8090116 0.5257377 0.6881894 0.4999969 0.5257362 0.1624555 -0.4999952 0.8506544 0.5257298 0 0.8506517 -0.4253227 -0.3090114 0.8506542 -0.4253227 0.3090114 0.8506542 0.1624555 0.4999952 0.8506544</float_array>
          <technique_common>
            <accessor source="#Icosphere-mesh-positions-array" count="42" stride="3">
              <param name="X" type="float"/>
              <param name="Y" type="float"/>
              <param name="Z" type="float"/>
            </accessor>
          </technique_common>
        </source>
        <source id="Icosphere-mesh-normals">
          <float_array id="Icosphere-mesh-normals-array" count="240">0.1023809 -0.3150898 -0.9435235 0.7002241 -0.2680317 -0.6616988 -0.2680342 -0.1947365 -0.9435229 -0.2680342 0.1947365 -0.9435229 0.1023809 0.3150898 -0.9435235 0.9049891 -0.2680315 -0.3303846 0.02474659 -0.9435213 -0.3303861 -0.8896973 -0.3150947 -0.3303847 -0.5746018 0.7487835 -0.3303875 0.534576 0.7778646 -0.3303865 0.8026091 -0.5831265 -0.1256272 -0.3065689 -0.9435216 -0.1256286 -0.9920774 0 -0.1256283 -0.3065689 0.9435216 -0.1256287 0.8026091 0.5831265 -0.1256273 0.4089461 -0.6284251 0.6616985 -0.4712997 -0.5831223 0.6616986 -0.7002239 0.2680317 0.6616988 0.0385304 0.748779 0.6616989 0.7240422 0.1947361 0.6616954 0.2680342 0.1947366 0.9435229 0.4911193 0.3568211 0.7946575 0.4089461 0.6284251 0.6616985 -0.1023809 0.3150899 0.9435235 -0.1875942 0.5773454 0.7946576 -0.4712997 0.5831223 0.6616986 -0.3313045 0 0.9435238 -0.6070605 0 0.7946556 -0.7002241 -0.2680317 0.6616988 -0.1023809 -0.3150899 0.9435235 -0.1875942 -0.5773454 0.7946576 0.0385304 -0.748779 0.661699 0.2680342 -0.1947366 0.9435229 0.4911193 -0.3568211 0.7946575 0.7240422 -0.1947361 0.6616954 0.8896973 0.3150947 0.3303847 0.7946555 0.5773479 0.187595 0.5746019 0.7487835 0.3303875 -0.02474659 0.9435213 0.3303861 -0.3035309 0.9341714 0.1875973 -0.534576 0.7778646 0.3303865 -0.9049891 0.2680315 0.3303846 -0.9822458 0 0.1875985 -0.9049891 -0.2680315 0.3303846 -0.534576 -0.7778646 0.3303865 -0.3035309 -0.9341714 0.1875973 -0.02474659 -0.9435213 0.3303861 0.5746018 -0.7487835 0.3303875 0.7946555 -0.5773479 0.187595 0.8896973 -0.3150946 0.3303847 0.3065689 0.9435216 0.1256286 0.3035309 0.9341714 -0.1875973 0.02474659 0.9435213 -0.3303861 -0.8026091 0.5831265 0.1256272 -0.7946556 0.5773479 -0.187595 -0.8896973 0.3150946 -0.3303847 -0.8026091 -0.5831265 0.1256273 -0.7946556 -0.5773479 -0.187595 -0.5746019 -0.7487835 -0.3303875 0.3065689 -0.9435216 0.1256287 0.3035309 -0.9341714 -0.1875973 0.534576 -0.7778646 -0.3303865 0.9920774 0 0.1256283 0.9822458 0 -0.1875985 0.9049891 0.2680315 -0.3303846 0.4712997 0.5831223 -0.6616986 0.1875942 0.5773453 -0.7946576 -0.03853034 0.7487791 -0.6616989 -0.4089462 0.6284252 -0.6616985 -0.4911194 0.3568211 -0.7946575 -0.7240422 0.1947361 -0.6616954 -0.7240422 -0.1947361 -0.6616954 -0.4911195 -0.3568211 -0.7946575 -0.4089462 -0.6284252 -0.6616985 0.7002241 0.2680317 -0.6616988 0.6070605 0 -0.7946556 0.3313045 0 -0.9435238 -0.03853034 -0.748779 -0.6616989 0.1875942 -0.5773454 -0.7946576 0.4712997 -0.5831223 -0.6616986</float_array>
          <technique_common>
            <accessor source="#Icosphere-mesh-normals-array" count="80" stride="3">
              <param name="X" type="float"/>
              <param name="Y" type="float"/>
              <param name="Z" type="float"/>
            </accessor>
          </technique_common>
        </source>
        <vertices id="Icosphere-mesh-vertices">
          <input semantic="POSITION" source="#Icosphere-mesh-positions"/>
        </vertices>
        <polylist count="80">
          <input semantic="VERTEX" source="#Icosphere-mesh-vertices" offset="0"/>
          <input semantic="NORMAL" source="#Icosphere-mesh-normals" offset="1"/>
          <vcount>3 3 3 3 3 3 3 3 3 3 3 3 3 3 3 3 3 3 3 3 3 3 3 3 3 3 3 3 3 3 3 3 3 3 3 3 3 3 3 3 3 3 3 3 3 3 3 3 3 3 3 3 3 3 3 3 3 3 3 3 3 3 3 3 3 3 3 3 3 3 3 3 3 3 3 3 3 3 3 3 </vcount>
          <p>0 0 13 0 12 0 1 1 13 1 15 1 0 2 12 2 17 2 0 3 17 3 19 3 0 4 19 4 16 4 1 5 15 5 22 5 2 6 14 6 24 6 3 7 18 7 26 7 4 8 20 8 28 8 5 9 21 9 30 9 1 10 22 10 25 10 2 11 24 11 27 11 3 12 26 12 29 12 4 13 28 13 31 13 5 14 30 14 23 14 6 15 32 15 37 15 7 16 33 16 39 16 8 17 34 17 40 17 9 18 35 18 41 18 10 19 36 19 38 19 38 20 41 20 11 20 38 21 36 21 41 21 36 22 9 22 41 22 41 23 40 23 11 23 41 24 35 24 40 24 35 25 8 25 40 25 40 26 39 26 11 26 40 27 34 27 39 27 34 28 7 28 39 28 39 29 37 29 11 29 39 30 33 30 37 30 33 31 6 31 37 31 37 32 38 32 11 32 37 33 32 33 38 33 32 34 10 34 38 34 23 35 36 35 10 35 23 36 30 36 36 36 30 37 9 37 36 37 31 38 35 38 9 38 31 39 28 39 35 39 28 40 8 40 35 40 29 41 34 41 8 41 29 42 26 42 34 42 26 43 7 43 34 43 27 44 33 44 7 44 27 45 24 45 33 45 24 46 6 46 33 46 25 47 32 47 6 47 25 48 22 48 32 48 22 49 10 49 32 49 30 50 31 50 9 50 30 51 21 51 31 51 21 52 4 52 31 52 28 53 29 53 8 53 28 54 20 54 29 54 20 55 3 55 29 55 26 56 27 56 7 56 26 57 18 57 27 57 18 58 2 58 27 58 24 59 25 59 6 59 24 60 14 60 25 60 14 61 1 61 25 61 22 62 23 62 10 62 22 63 15 63 23 63 15 64 5 64 23 64 16 65 21 65 5 65 16 66 19 66 21 66 19 67 4 67 21 67 19 68 20 68 4 68 19 69 17 69 20 69 17 70 3 70 20 70 17 71 18 71 3 71 17 72 12 72 18 72 12 73 2 73 18 73 15 74 16 74 5 74 15 75 13 75 16 75 13 76 0 76 16 76 12 77 14 77 2 77 12 78 13 78 14 78 13 79 1 79 14 79</p>
        </polylist>
      </mesh>
    </geometry>
  </library_geometries>
  <library_controllers/>
  <library_visual_scenes>
    <visual_scene id="Scene" name="Scene">
      <node id="Camera" name="Camera" type="NODE">
        <matrix sid="transform">0.6858805 -0.3173701 0.6548619 7.481132 0.7276338 0.3124686 -0.6106656 -6.50764 -0.01081678 0.8953432 0.4452454 5.343665 0 0 0 1</matrix>
        <instance_camera url="#Camera-camera"/>
      </node>
      <node id="Lamp" name="Lamp" type="NODE">
        <matrix sid="transform">-0.2908646 -0.7711008 0.5663932 4.076245 0.9551712 -0.1998834 0.2183912 1.005454 -0.05518906 0.6045247 0.7946723 5.903862 0 0 0 1</matrix>
        <instance_light url="#Lamp-light"/>
      </node>
      <node id="Icosphere" name="Icosphere" type="NODE">
        <matrix sid="transform">1 0 0 0 0 1 0 0 0 0 1 0 0 0 0 1</matrix>
        <instance_geometry url="#Icosphere-mesh"/>
      </node>
    </visual_scene>
  </library_visual_scenes>
  <scene>
    <instance_visual_scene url="#Scene"/>
  </scene>
</COLLADA>