# Blender v2.74 (sub 0) OBJ File: ''
# www.blender.org
mtllib numbered_cube.mtl
o Cube_Cube.001
v 1.949409 2.014124 -0.563551
v 1.949409 0.014124 -0.563551
v 1.949409 2.014124 1.436449
v 1.949409 0.014124 1.436449
v -0.050591 2.014124 -0.563551
v -0.050591 0.014124 -0.563551
v -0.050591 2.014124 1.436449
v -0.050591 0.014124 1.436449
vt 1.000000 0.000000
vt 0.960315 0.384882
vt 0.595276 0.340236
vt 0.409685 0.610157
vt 0.409685 0.990079
vt 0.000000 1.000000
vt 0.905748 0.659764
vt 0.905748 0.985118
vt 0.575433 0.990079
vt 0.370000 0.332362
vt 0.345197 0.677559
vt 0.014882 0.677559
vt 0.365039 -0.004961
vt 0.360079 0.325354
vt 0.000000 0.315433
vt 0.985118 0.322441
vt 0.985118 0.677559
vt 0.565512 0.657717
vt 0.610157 0.000000
vt 0.004961 0.620079
vt 0.590315 0.674646
vt 0.000000 0.362126
vt 0.000000 0.000000
vt 0.580394 0.317480
vn 0.000000 1.000000 0.000000
vn 0.000000 -1.000000 0.000000
vn 0.000000 0.000000 1.000000
vn 1.000000 0.000000 0.000000
vn 0.000000 0.000000 -1.000000
vn -1.000000 0.000000 0.000000
usemtl Material.001
s off
f 1/1/1 5/2/1 7/3/1
f 6/4/2 2/5/2 4/6/2
f 7/7/3 8/8/3 4/9/3
f 3/10/4 4/11/4 2/12/4
f 1/13/5 2/14/5 6/15/5
f 5/16/6 6/17/6 8/18/6
f 3/19/1 1/1/1 7/3/1
f 8/20/2 6/4/2 4/6/2
f 3/21/3 7/7/3 4/9/3
f 1/22/4 3/10/4 2/12/4
f 5/23/5 1/13/5 6/15/5
f 7/24/6 5/16/6 8/18/6
